{
	"#Information" : 
	{
		"compiler" : "4.2.1 Compatible Clang 5.0.0 (tags/RELEASE_500/final)",
		"githash" : "0809b8653abd61638ded78eba58e78818cc9e43c",
		"processes" : 1,
		"starttime" : "2017-11-09 10:17:10",
		"version" : "0.9.0"
	},
	"Application" : "Cells",
	"Fields" : 
	{
		"cells" : 
		{
			"Boundaries" : 
			{
				"lowerX" : 
				{
					"Type" : "Periodic"
				},
				"lowerY" : 
				{
					"Type" : "Periodic"
				},
				"lowerZ" : 
				{
					"Type" : "Periodic"
				},
				"upperX" : 
				{
					"Type" : "Periodic"
				},
				"upperY" : 
				{
					"Type" : "Periodic"
				},
				"upperZ" : 
				{
					"Type" : "Periodic"
				}
			}
		}
	},
	"Filling" : 
	{
		"cells" : 
		[
			{
				"box" : 
				[
					[
						21,
						35,
						10
					],
					[
						25,
						39,
						15
					]
				],
				"type" : "cube",
				"value" : 1.0
			},
			{
				"box" : 
				[
					[
						15,
						15,
						14
					],
					[
						22,
						22,
						20
					]
				],
				"type" : "cube",
				"value" : 2.0
			}
		]
	},
	"Geometry" : 
	{
		"Blockcnt" : 1,
		"Blockdefault" : "fill",
		"Blocksize" : 20,
		"Blocktype" : 1
	},
	"PottsModel" : 
	{
		"2D" : false,
		"CenterOfMass" : 
		{
			"Steps" : 1
		},
		"defaultSurface" : 
		{
			"type" : "const",
			"value" : 400
		},
		"defaultVolume" : 
		{
			"type" : "const",
			"value" : 300
		},
		"killDistance" : 0,
		"lambdaSurface" : 
		{
			"type" : "const",
			"value" : 10
		},
		"lambdaVolume" : 
		{
			"type" : "const",
			"value" : 10
		},
		"liquid" : 0,
		"map_adhesion" : 5.0,
		"map_coupling" : 50.0,
		"potentialDirection" : 0.0,
		"randomSeed" : 42,
		"temperature" : 15.0
	},
	"Settings" : 
	{
		"Border" : 
		{
			"collectBlocks" : false,
			"fullHide" : true,
			"fullStencil" : true
		},
		"Timesteps" : 300,
		"deltat" : 1.0,
		"deltax" : 1.0,
		"statusoutput" : 100
	},
	"Writer" : 
	[
		{
			"Field" : "cells",
			"Name" : "VTK_Cells",
			"Steps" : 60,
			"Type" : "VtkImage"
		}
	]
}

